^C:\USERS\SATCHEL\DESKTOP\PROGRAMMING\C++\RL\RL\INCLUDE\SPDLOG-0.11.0\EXAMPLE\DEBUG\EXAMPLE.OBJ
C:\USERS\SATCHEL\DESKTOP\PROGRAMMING\C++\RL\RL\INCLUDE\SPDLOG-0.11.0\EXAMPLE\DEBUG\EXAMPLE.ILK
C:\USERS\SATCHEL\DESKTOP\PROGRAMMING\C++\RL\RL\INCLUDE\SPDLOG-0.11.0\EXAMPLE\DEBUG\EXAMPLE.EXE
C:\USERS\SATCHEL\DESKTOP\PROGRAMMING\C++\RL\RL\INCLUDE\SPDLOG-0.11.0\EXAMPLE\DEBUG\EXAMPLE.PDB
